<?xml version="1.0" encoding="UTF-8" standalone="no"?>
<svg
   xmlns:dc="http://purl.org/dc/elements/1.1/"
   xmlns:cc="http://creativecommons.org/ns#"
   xmlns:rdf="http://www.w3.org/1999/02/22-rdf-syntax-ns#"
   xmlns:svg="http://www.w3.org/2000/svg"
   xmlns="http://www.w3.org/2000/svg"
   xmlns:sodipodi="http://sodipodi.sourceforge.net/DTD/sodipodi-0.dtd"
   xmlns:inkscape="http://www.inkscape.org/namespaces/inkscape"
   width="420mm"
   height="297mm"
   viewBox="0 0 1190.5512 841.88976"
   version="1.1"
   id="svg739"
   sodipodi:docname="graph-3_COLOR-filling.svg"
   inkscape:version="0.92.4 5da689c313, 2019-01-14">
  <metadata
     id="metadata745">
    <rdf:RDF>
      <cc:Work
         rdf:about="">
        <dc:format>image/svg+xml</dc:format>
        <dc:type
           rdf:resource="http://purl.org/dc/dcmitype/StillImage" />
        <dc:title></dc:title>
      </cc:Work>
    </rdf:RDF>
  </metadata>
  <defs
     id="defs743" />
  <sodipodi:namedview
     pagecolor="#ffffff"
     bordercolor="#666666"
     borderopacity="1"
     objecttolerance="10"
     gridtolerance="10"
     guidetolerance="10"
     inkscape:pageopacity="0"
     inkscape:pageshadow="2"
     inkscape:window-width="1362"
     inkscape:window-height="729"
     id="namedview741"
     showgrid="false"
     inkscape:zoom="0.68910062"
     inkscape:cx="733.81214"
     inkscape:cy="492.65538"
     inkscape:window-x="0"
     inkscape:window-y="18"
     inkscape:window-maximized="0"
     inkscape:current-layer="svg739"
     showguides="true"
     inkscape:guide-bbox="true"
     units="mm">
    <sodipodi:guide
       position="-216.31456,1040.7587"
       orientation="1,0"
       id="guide4054"
       inkscape:locked="false" />
  </sodipodi:namedview>
  <g
     inkscape:groupmode="layer"
     id="layer1"
     inkscape:label="text"
     style="display:inline"
     transform="translate(0,-611.11023)">
    <text
       style="font-style:normal;font-variant:normal;font-weight:normal;font-stretch:normal;font-size:14px;font-family:Rubik;-inkscape-font-specification:Rubik;text-anchor:middle;fill:#000000"
       id="text623"
       font-size="14.00"
       y="677.48798"
       x="-792.52673">Practice aspects</text>
    <text
       style="font-style:normal;font-variant:normal;font-weight:normal;font-stretch:normal;font-size:14px;font-family:Rubik;-inkscape-font-specification:Rubik;text-anchor:middle;fill:#000000"
       id="text630"
       font-size="14.00"
       y="626.73456"
       x="-594.29034">Workshops &amp; Presentations</text>
    <text
       style="font-style:normal;font-variant:normal;font-weight:normal;font-stretch:normal;font-size:14px;font-family:Rubik;-inkscape-font-specification:Rubik;text-anchor:middle;fill:#000000"
       id="text644"
       font-size="14.00"
       y="725.52924"
       x="-787.22052">Breadfellows' Chats &amp; Meals</text>
    <text
       style="font-style:normal;font-variant:normal;font-weight:normal;font-stretch:normal;font-size:14px;font-family:Rubik;-inkscape-font-specification:Rubik;text-anchor:middle;fill:#000000"
       id="text658"
       font-size="14.00"
       y="620.57245"
       x="-839.0625">Exhibitions</text>
    <text
       style="font-style:normal;font-variant:normal;font-weight:normal;font-stretch:normal;font-size:14px;font-family:Rubik;-inkscape-font-specification:Rubik;text-anchor:middle;fill:#000000"
       id="text672"
       font-size="14.00"
       y="621.59821"
       x="-730.9848">Conference</text>
    <text
       style="font-style:normal;font-variant:normal;font-weight:normal;font-stretch:normal;font-size:14px;font-family:Rubik;-inkscape-font-specification:Rubik;text-anchor:middle;fill:#000000"
       id="text686"
       font-size="14.00"
       y="502.77008"
       x="-795.2912">Written resources</text>
    <text
       style="font-style:normal;font-variant:normal;font-weight:normal;font-stretch:normal;font-size:14px;font-family:Rubik;-inkscape-font-specification:Rubik;text-anchor:middle;fill:#000000"
       id="text700"
       font-size="14.00"
       y="639.93097"
       x="-935.8537">Website</text>
    <text
       style="font-style:normal;font-variant:normal;font-weight:normal;font-stretch:normal;font-size:14px;font-family:Rubik;-inkscape-font-specification:Rubik;text-anchor:middle;fill:#000000"
       id="text714"
       font-size="14.00"
       y="743.83319"
       x="-656.28961">Film</text>
    <text
       style="font-style:normal;font-variant:normal;font-weight:normal;font-stretch:normal;font-size:14px;font-family:Rubik;-inkscape-font-specification:Rubik;text-anchor:middle;fill:#000000"
       id="text728"
       font-size="14.00"
       y="757.05182"
       x="-928.27753">Research</text>
  </g>
  <g
     inkscape:groupmode="layer"
     id="layer2"
     inkscape:label="main-node-level"
     style="display:inline"
     transform="translate(0,-611.11023)">
    <rect
       style="opacity:0.98999999;vector-effect:none;fill:#041f42;fill-opacity:0;fill-rule:evenodd;stroke:none;stroke-width:0.99974996;stroke-linecap:butt;stroke-linejoin:round;stroke-miterlimit:4;stroke-dasharray:none;stroke-dashoffset:0;stroke-opacity:1;paint-order:normal"
       id="rect3039"
       width="92.3517"
       height="92.3517"
       x="-257.81516"
       y="811.15576" />
    <g
       id="g3253"
       transform="translate(150.8411,-124.67479)">
      <g
         id="g3238">
        <rect
           style="display:inline;opacity:0.98999999;vector-effect:none;fill:#2aa38d;fill-opacity:1;fill-rule:evenodd;stroke:none;stroke-width:0.99974996;stroke-linecap:butt;stroke-linejoin:round;stroke-miterlimit:4;stroke-dasharray:none;stroke-dashoffset:0;stroke-opacity:1;paint-order:normal"
           id="rect3106-4"
           width="167.77223"
           height="160.07626"
           x="-735.73517"
           y="1127.3311" />
        <rect
           style="display:inline;opacity:0.98999999;vector-effect:none;fill:#e3e0de;fill-opacity:1;fill-rule:evenodd;stroke:none;stroke-width:0.99974996;stroke-linecap:butt;stroke-linejoin:round;stroke-miterlimit:4;stroke-dasharray:none;stroke-dashoffset:0;stroke-opacity:1;paint-order:normal"
           id="rect3106-4-9"
           width="167.77223"
           height="160.07626"
           x="-735.73517"
           y="1295.6165" />
        <rect
           style="display:inline;opacity:0.98999999;vector-effect:none;fill:#f48961;fill-opacity:1;fill-rule:evenodd;stroke:none;stroke-width:0.99974996;stroke-linecap:butt;stroke-linejoin:round;stroke-miterlimit:4;stroke-dasharray:none;stroke-dashoffset:0;stroke-opacity:1;paint-order:normal"
           id="rect3106-4-9-8"
           width="167.77223"
           height="160.07626"
           x="-735.73517"
           y="1463.9017" />
        <rect
           style="display:inline;opacity:0.98999999;vector-effect:none;fill:#76a9d8;fill-opacity:1;fill-rule:evenodd;stroke:none;stroke-width:0.99974996;stroke-linecap:butt;stroke-linejoin:round;stroke-miterlimit:4;stroke-dasharray:none;stroke-dashoffset:0;stroke-opacity:1;paint-order:normal"
           id="rect3106-4-9-8-2"
           width="167.77223"
           height="160.07626"
           x="-735.73517"
           y="959.04578" />
      </g>
      <rect
         y="1463.9017"
         x="-561.77435"
         height="160.07626"
         width="167.77225"
         id="rect3106"
         style="opacity:0.98999999;vector-effect:none;fill:#041f42;fill-opacity:1;fill-rule:evenodd;stroke:none;stroke-width:0.99974996;stroke-linecap:butt;stroke-linejoin:round;stroke-miterlimit:4;stroke-dasharray:none;stroke-dashoffset:0;stroke-opacity:1;paint-order:normal" />
      <rect
         y="1295.6165"
         x="-561.77435"
         height="160.07626"
         width="167.77223"
         id="rect3106-4-9-8-3"
         style="display:inline;opacity:0.98999999;vector-effect:none;fill:#82ba9c;fill-opacity:1;fill-rule:evenodd;stroke:none;stroke-width:0.99974996;stroke-linecap:butt;stroke-linejoin:round;stroke-miterlimit:4;stroke-dasharray:none;stroke-dashoffset:0;stroke-opacity:1;paint-order:normal" />
      <rect
         y="959.04578"
         x="-561.77435"
         height="160.07626"
         width="167.77223"
         id="rect3106-8"
         style="display:inline;opacity:0.98999999;vector-effect:none;fill:#fa511e;fill-opacity:1;fill-rule:evenodd;stroke:none;stroke-width:0.99974996;stroke-linecap:butt;stroke-linejoin:round;stroke-miterlimit:4;stroke-dasharray:none;stroke-dashoffset:0;stroke-opacity:1;paint-order:normal" />
      <rect
         y="1127.3311"
         x="-561.77435"
         height="160.07626"
         width="167.77223"
         id="rect3106-4-9-2"
         style="display:inline;opacity:0.98999999;vector-effect:none;fill:#b2b1b4;fill-opacity:1;fill-rule:evenodd;stroke:none;stroke-width:0.99974996;stroke-linecap:butt;stroke-linejoin:round;stroke-miterlimit:4;stroke-dasharray:none;stroke-dashoffset:0;stroke-opacity:1;paint-order:normal" />
    </g>
  </g>
  <g
     id="g4097"
     transform="translate(-176.31677,-934.35765)">
    <text
       style="font-style:normal;font-variant:normal;font-weight:normal;font-stretch:normal;font-size:14px;font-family:Rubik;-inkscape-font-specification:Rubik;text-anchor:middle;fill:#000000"
       id="text10"
       font-size="14.00"
       y="521.70673"
       x="-367.00143">Practice aspects</text>
    <g
       transform="translate(62.037384)"
       id="g4008">
      <polygon
         points="318.7,-414 146.0934,-414 146.0934,-378 318.7,-378 "
         id="polygon15"
         style="fill:#76a9d8;fill-opacity:0.99215686;stroke:none"
         transform="matrix(1.0882773,0,0,1,-425.32696,724.50675)" />
      <text
         x="-172.95908"
         y="332.70676"
         font-size="14.00"
         id="text17"
         style="font-style:normal;font-variant:normal;font-weight:normal;font-stretch:normal;font-size:14px;font-family:Rubik;-inkscape-font-specification:Rubik;text-anchor:middle;fill:#fffffe;fill-opacity:1">Workshops &amp; Presentations</text>
    </g>
    <path
       inkscape:connector-curvature="0"
       id="path22"
       d="m -348.00218,499.44015 c 11.02102,-29.30941 30.77323,-54.29234 49.36025,-79.14725 24.85119,-31.16525 50.99676,-62.057 82.62166,-86.58693"
       style="fill:none;stroke:#000000" />
    <g
       transform="translate(65.382208)"
       id="g4012">
      <polygon
         points="141.116,-360 141.116,-324 323.6774,-324 323.6774,-360 "
         id="polygon29"
         style="fill:#fa511e;fill-opacity:0.99215686;stroke:none"
         transform="matrix(1.0864446,0,0,1,-422.99637,724.50675)" />
      <text
         x="-172.95908"
         y="386.70676"
         font-size="14.00"
         id="text31"
         style="font-style:normal;font-variant:normal;font-weight:normal;font-stretch:normal;font-size:14px;font-family:Rubik;-inkscape-font-specification:Rubik;text-anchor:middle;fill:#fffffe;fill-opacity:1">Breadfellows' Chats &amp; Meals</text>
    </g>
    <path
       inkscape:connector-curvature="0"
       id="path36"
       d="m -342.74138,499.36825 c 19.17245,-27.53066 44.91184,-49.70816 69.46024,-72.29064 18.05745,-15.52047 36.10203,-31.50395 56.65383,-43.68816"
       style="fill:none;stroke:#000000" />
    <g
       transform="translate(8.7204349)"
       id="g4016">
      <polygon
         points="272.4575,-270 272.4575,-306 192.3359,-306 192.3359,-270 "
         id="polygon43"
         style="fill:#2aa38d;fill-opacity:0.99215686;stroke:none"
         transform="translate(-405.35578,724.50675)" />
      <text
         x="-172.95908"
         y="440.70676"
         font-size="14.00"
         id="text45"
         style="font-style:normal;font-variant:normal;font-weight:normal;font-stretch:normal;font-size:14px;font-family:Rubik;-inkscape-font-specification:Rubik;text-anchor:middle;fill:#fffffe;fill-opacity:1">Exhibitions</text>
    </g>
    <path
       inkscape:connector-curvature="0"
       id="path50"
       d="m -327.11378,499.32365 c 30.07864,-20.58435 59.61988,-43.50554 95.17974,-53.81361 5.1742,-1.7364 10.38429,-3.36503 15.61948,-4.9075"
       style="fill:none;stroke:#000000" />
    <g
       transform="translate(8.6772349)"
       id="g4020">
      <polygon
         points="272.4143,-216 272.4143,-252 192.3791,-252 192.3791,-216 "
         id="polygon57"
         style="fill:#b2b1b4;fill-opacity:0.99215686;stroke:none"
         transform="translate(-405.35578,724.50675)" />
      <text
         x="-172.95908"
         y="494.70676"
         font-size="14.00"
         id="text59"
         style="font-style:normal;font-variant:normal;font-weight:normal;font-stretch:normal;font-size:14px;font-family:Rubik;-inkscape-font-specification:Rubik;text-anchor:middle;fill:#000000">Conference</text>
    </g>
    <path
       inkscape:connector-curvature="0"
       id="path64"
       d="m -300.33638,509.62465 c 28.0336,-4.23351 55.98861,-8.97086 84.02182,-13.20686"
       style="fill:none;stroke:#000000" />
    <g
       transform="translate(35.526725)"
       id="g4024">
      <polygon
         points="174.7808,-198 174.7808,-162 290.0126,-162 290.0126,-198 "
         id="polygon71"
         style="fill:#e3e0de;fill-opacity:0.99215686;stroke:none"
         transform="matrix(1.1227862,0,0,1,-436.06764,724.50675)" />
      <text
         x="-172.95908"
         y="548.70673"
         font-size="14.00"
         id="text73"
         style="font-style:normal;font-variant:normal;font-weight:normal;font-stretch:normal;font-size:14px;font-family:Rubik;-inkscape-font-specification:Rubik;text-anchor:middle;fill:#000000">Written resources</text>
    </g>
    <path
       inkscape:connector-curvature="0"
       id="path78"
       d="m -300.33638,525.38885 c 28.06036,4.38141 55.95756,9.75733 84.02182,14.11538"
       style="fill:none;stroke:#000000" />
    <g
       transform="translate(-0.47066537)"
       id="g4028">
      <polygon
         points="263.2664,-108 263.2664,-144 201.527,-144 201.527,-108 "
         id="polygon85"
         style="fill:#82ba9c;fill-opacity:0.99215686;stroke:none"
         transform="translate(-405.35578,724.50675)" />
      <text
         x="-172.95908"
         y="602.70673"
         font-size="14.00"
         id="text87-1"
         style="font-style:normal;font-variant:normal;font-weight:normal;font-stretch:normal;font-size:14px;font-family:Rubik;-inkscape-font-specification:Rubik;text-anchor:middle;fill:#fffffe;fill-opacity:1">Website</text>
    </g>
    <path
       inkscape:connector-curvature="0"
       id="path92-7"
       d="m -327.11378,535.68985 c 24.1933,17.02983 47.145,37.05814 75.84344,46.19094 11.47263,4.23301 23.16723,7.84465 34.95578,11.08607"
       style="fill:none;stroke:#000000" />
    <g
       transform="translate(-4.3403654)"
       id="g4032">
      <polygon
         points="259.3967,-54 259.3967,-90 205.3967,-90 205.3967,-54 "
         id="polygon99-6"
         style="fill:#f48961;fill-opacity:0.99215686;stroke:none"
         transform="translate(-405.35578,724.50675)" />
      <text
         x="-172.95908"
         y="656.70673"
         font-size="14.00"
         id="text101-0"
         style="font-style:normal;font-variant:normal;font-weight:normal;font-stretch:normal;font-size:14px;font-family:Rubik;-inkscape-font-specification:Rubik;text-anchor:middle;fill:#fffffe;fill-opacity:1">Film</text>
    </g>
    <path
       inkscape:connector-curvature="0"
       id="path106-2"
       d="m -342.74138,535.64525 c 21.06736,36.35686 42.20799,76.27769 80.18098,97.57455 14.4571,7.82867 30.27165,12.84761 46.24584,16.51198"
       style="fill:none;stroke:#000000" />
    <g
       transform="translate(6.8140269)"
       id="g4036">
      <polygon
         points="198.5958,-36 198.5958,0 266.1976,0 266.1976,-36 "
         id="polygon113-7"
         style="fill:#041f42;fill-opacity:0.99215686;stroke:none"
         transform="matrix(1.1368483,0,0,1,-436.88677,724.50675)" />
      <text
         x="-172.95908"
         y="710.70673"
         font-size="14.00"
         id="text115-9"
         style="font-style:normal;font-variant:normal;font-weight:normal;font-stretch:normal;font-size:14px;font-family:Rubik;-inkscape-font-specification:Rubik;text-anchor:middle;fill:#fffffe;fill-opacity:1">Research</text>
    </g>
    <path
       inkscape:connector-curvature="0"
       id="path120"
       d="m -348.00218,535.57335 c 15.92325,51.45358 38.64515,103.37937 79.22806,140.21548 14.49242,13.24226 33.28501,20.52018 52.12584,25.02462"
       style="fill:none;stroke:#000000" />
  </g>
  <path
     d="m 600.04696,412.20448 c 3.1563,23.96765 9.48487,72.02464 12.30391,93.43151"
     id="path30"
     inkscape:connector-curvature="0"
     style="fill:none;stroke:#000000;stroke-width:0.69039434;stroke-miterlimit:4;stroke-dasharray:none" />
  <path
     d="m 624.8034,396.40478 c 48.30144,-26.50873 135.30535,-74.25812 180.5089,-99.06674"
     id="path44"
     inkscape:connector-curvature="0"
     style="fill:none;stroke:#000000;stroke-width:0.69056702" />
  <path
     d="M 556.07037,403.94273 C 513.37614,389.79522 440.37209,365.60397 393.49364,350.06994"
     id="path58"
     inkscape:connector-curvature="0"
     style="fill:none;stroke:#000000;stroke-width:0.69056702" />
  <path
     d="M 562.14032,389.55152 C 525.20963,355.85033 461.48749,297.70065 429.89246,268.86852"
     id="path72"
     inkscape:connector-curvature="0"
     style="fill:none;stroke:#000000;stroke-width:0.69056702" />
  <path
     d="m 640.42888,411.60319 c 25.11684,-4.95358 60.24864,-11.88236 91.51385,-18.04856"
     id="path92"
     inkscape:connector-curvature="0"
     style="fill:none;stroke:#000000;stroke-width:0.69039434;stroke-miterlimit:4;stroke-dasharray:none" />
  <path
     d="m 605.80232,389.58108 c 20.07554,-33.45038 54.65333,-91.0648 72.30471,-120.47598"
     id="path106"
     inkscape:connector-curvature="0"
     style="fill:none;stroke:#000000;stroke-width:0.69056702" />
  <path
     d="m 556.06078,434.92018 c -22.77953,13.0252 -53.22456,30.4335 -79.55443,45.48882"
     id="path122"
     inkscape:connector-curvature="0"
     style="fill:none;stroke:#000000;stroke-width:0.69056702" />
  <path
     d="m 556.05601,417.57279 c -19.98881,1.32051 -46.32434,3.06039 -72.36293,4.78059"
     id="path140"
     inkscape:connector-curvature="0"
     style="fill:none;stroke:#000000;stroke-width:0.69056702" />
  <path
     d="M 587.86256,389.49766 C 584.175,351.43706 577.2656,280.12351 573.09361,237.06293"
     id="path156"
     inkscape:connector-curvature="0"
     style="fill:none;stroke:#000000;stroke-width:0.69056702" />
  <path
     d="m 624.80858,426.51191 c 42.32278,13.76832 114.24119,37.16452 160.91579,52.3485"
     id="path170"
     inkscape:connector-curvature="0"
     style="fill:none;stroke:#000000;stroke-width:0.69056702" />
  <path
     d="m 903.71305,285.71814 c 24.40485,1.57367 51.5393,3.32329 74.1651,4.78218"
     id="path298"
     inkscape:connector-curvature="0"
     style="fill:none;stroke:#000000;stroke-width:0.69056702" />
  <path
     d="M 849.05233,268.80319 C 881.17025,241.2794 957.63964,175.74825 994.04805,144.54767"
     id="path312"
     inkscape:connector-curvature="0"
     style="fill:none;stroke:#000000;stroke-width:0.69056702" />
  <g
     class="node"
     id="node13"
     transform="matrix(0.79130815,0,0,0.79130815,-36.849062,943.1828)"
     style="fill:#28a38d;fill-opacity:0.99215686;stroke:none">
    <title
       id="title317">node11</title>
    <polygon
       style="fill:#28a38d;fill-opacity:0.99215686;stroke:none"
       id="polygon319"
       points="1294.9637,-1051.2384 1294.9637,-1092.4423 1139.8752,-1092.4423 1139.8752,-1051.2384 " />
  </g>
  <path
     d="m 840.54226,268.88219 c 15.56435,-31.47812 56.45945,-114.18663 75.69015,-153.07985"
     id="path328"
     inkscape:connector-curvature="0"
     style="fill:none;stroke:#000000;stroke-width:0.69056702" />
  <path
     d="m 871.13839,268.9576 c 29.36822,-9.93367 71.28516,-24.11177 106.50532,-36.02481"
     id="path346"
     inkscape:connector-curvature="0"
     style="fill:none;stroke:#000000;stroke-width:0.69056702" />
  <path
     d="m 855.87858,268.85885 c 3.57072,-2.08034 7.37512,-4.29685 11.24036,-6.54879"
     id="path364"
     inkscape:connector-curvature="0"
     style="fill:none;stroke:#000000;stroke-width:0.69056702" />
  <g
     class="node"
     id="node17"
     transform="matrix(0.85184836,0,0,0.85184836,52.281412,962.34452)"
     style="fill:#76a9db;fill-opacity:0.99215686;stroke:none">
    <title
       id="title369">node13</title>
    <polygon
       style="fill:#76a9db;fill-opacity:0.99215686;stroke:none"
       id="polygon371"
       points="167.6854,-780.6814 19.5605,-780.6814 19.5605,-744.6814 167.6854,-744.6814 " />
  </g>
  <path
     d="m 287.42214,327.04395 c -25.10612,-3.39497 -53.96457,-7.29729 -78.69881,-10.64198"
     id="path378"
     inkscape:connector-curvature="0"
     style="fill:none;stroke:#000000;stroke-width:0.69056702" />
  <g
     class="node"
     id="node18"
     transform="matrix(0.80163488,0,0,0.80163488,44.391673,926.45244)"
     style="fill:#29a38d;fill-opacity:0.99215686;stroke:none">
    <title
       id="title383">node14</title>
    <polygon
       style="fill:#29a38d;fill-opacity:0.99215686;stroke:none"
       id="polygon385"
       points="199.7179,-875.9894 65.378,-875.9894 65.378,-834.7856 199.7179,-834.7856 " />
  </g>
  <path
     d="M 325.68618,322.95296 C 295.88386,307.1936 244.36211,279.94915 210.56162,262.07562"
     id="path394"
     inkscape:connector-curvature="0"
     style="fill:none;stroke:#000000;stroke-width:0.69056702" />
  <g
     class="node"
     id="node19"
     transform="matrix(0.80998805,0,0,0.80998805,50.397032,940.58586)"
     style="fill:#82ba9c;fill-opacity:0.99215686;stroke:none">
    <title
       id="title399">node15</title>
    <polygon
       style="fill:#82ba9c;fill-opacity:0.99215686;stroke:none"
       id="polygon401"
       points="261.2992,-974.7746 111.2513,-974.7746 111.2513,-915.9719 261.2992,-915.9719 " />
  </g>
  <path
     d="M 338.19663,322.87755 C 316.15863,297.85693 266.29541,241.24508 237.02939,208.0181"
     id="path412"
     inkscape:connector-curvature="0"
     style="fill:none;stroke:#000000;stroke-width:0.69056702" />
  <path
     d="m 297.64101,347.85011 c -26.38954,6.36813 -58.80247,14.18984 -86.97864,20.98916"
     id="path428"
     inkscape:connector-curvature="0"
     style="fill:none;stroke:#000000;stroke-width:0.69056702" />
  <g
     class="node"
     id="node22"
     transform="matrix(0.80027419,0,0,0.80027419,39.865934,950.78146)"
     style="fill:#fd511b;fill-opacity:0.99215686;stroke:none;stroke-opacity:1">
    <title
       id="title433">node18</title>
    <polygon
       style="fill:#fd511b;fill-opacity:0.99215686;stroke:none;stroke-opacity:1"
       id="polygon435"
       points="500.3639,-1156.3179 350.6435,-1156.3179 350.6435,-1115.1141 500.3639,-1115.1141 " />
  </g>
  <path
     d="M 409.03796,239.07283 C 403.81265,205.63606 389.51342,114.13524 382.97561,72.299796"
     id="path444"
     inkscape:connector-curvature="0"
     style="fill:none;stroke:#000000;stroke-width:0.69056702" />
  <path
     d="m 440.33393,241.31301 c 0.26295,-35.86445 0.52518,-71.61669 0.78084,-106.48679"
     id="path460"
     inkscape:connector-curvature="0"
     style="fill:none;stroke:#000000;stroke-width:0.69039434;stroke-miterlimit:4;stroke-dasharray:none" />
  <g
     class="node"
     id="node24"
     transform="matrix(0.80995387,0,0,0.80995387,47.820446,963.92757)"
     style="fill:#e5e2e0;fill-opacity:0.99215686;stroke:none">
    <title
       id="title465">node20</title>
    <polygon
       style="fill:#e5e2e0;fill-opacity:0.99215686;stroke:none"
       id="polygon467"
       points="380.5357,-1057.6002 380.5357,-1098.804 255.6264,-1098.804 255.6264,-1057.6002 " />
  </g>
  <path
     d="M 402.71782,238.99528 C 384.50923,211.22143 340.86194,144.64567 318.75896,110.93184"
     id="path476"
     inkscape:connector-curvature="0"
     style="fill:none;stroke:#000000;stroke-width:0.69056702" />
  <path
     d="m 833.10817,379.78554 c 31.84232,-5.19203 69.61993,-11.35209 98.04408,-15.98683"
     id="path496"
     inkscape:connector-curvature="0"
     style="fill:none;stroke:#000000;stroke-width:0.69056702" />
  <g
     class="node"
     id="node28"
     transform="matrix(0.83288263,0,0,0.83288263,-43.73396,992.88167)"
     style="fill:#f58961;fill-opacity:0.99215686;stroke:none">
    <title
       id="title501">node23</title>
    <polygon
       style="fill:#f58961;fill-opacity:0.99215686;stroke:none"
       id="polygon503"
       points="986.2309,-1087.3386 986.2309,-1128.5424 834.0764,-1128.5424 834.0764,-1087.3386 " />
  </g>
  <path
     d="m 690.94211,237.96765 c 4.25466,-30.55483 15.10181,-108.45479 20.38823,-146.420095"
     id="path512"
     inkscape:connector-curvature="0"
     style="fill:none;stroke:#000000;stroke-width:0.69056702" />
  <path
     d="m 698.60738,238.79283 c 2.41538,-3.47506 4.90799,-7.06143 7.44724,-10.71493"
     id="path530"
     inkscape:connector-curvature="0"
     style="fill:none;stroke:#000000;stroke-width:0.69039434;stroke-miterlimit:4;stroke-dasharray:none" />
  <g
     class="node"
     id="node30"
     transform="matrix(0.79819634,0,0,0.79819634,-70.726897,718.59944)"
     style="fill:#82ba9c;fill-opacity:0.99215686;stroke:none">
    <title
       id="title535">node25</title>
    <polygon
       style="fill:#82ba9c;fill-opacity:0.99215686;stroke:none"
       id="polygon537"
       points="1000.8622,-761.6364 1000.8622,-702.8337 1125.5596,-702.8337 1125.5596,-761.6364 " />
  </g>
  <path
     d="m 712.92499,238.07159 c 9.27551,-19.96306 23.21707,-49.96872 34.63434,-74.54145"
     id="path548"
     inkscape:connector-curvature="0"
     style="fill:none;stroke:#000000;stroke-width:0.69056702" />
  <path
     d="m 363.24467,528.85987 c -20.82267,5.90518 -44.32577,12.57046 -64.8758,18.39823"
     id="path564"
     inkscape:connector-curvature="0"
     style="fill:none;stroke:#000000;stroke-width:0.69056702" />
  <path
     d="M 364.14473,513.38007 C 330.06801,509.24752 283.89468,503.648 255.3144,500.18198"
     id="path578"
     inkscape:connector-curvature="0"
     style="fill:none;stroke:#000000;stroke-width:0.69056702" />
  <path
     d="m 923.82074,498.06369 c 22.16159,-2.39779 61.03083,-6.60325 85.85726,-9.2894"
     id="path594"
     inkscape:connector-curvature="0"
     style="fill:none;stroke:#000000;stroke-width:0.69039434;stroke-miterlimit:4;stroke-dasharray:none" />
  <g
     class="node"
     id="node38"
     transform="matrix(0.82934451,0,0,0.82934451,-65.053137,783.9056)"
     style="fill:#b2b1b4;fill-opacity:0.99215686;stroke:none">
    <title
       id="title599">node33</title>
    <polygon
       style="fill:#b2b1b4;fill-opacity:0.99215686;stroke:none"
       id="polygon601"
       points="1175.5663,-454.1028 1175.5663,-395.3001 1343.0675,-395.3001 1343.0675,-454.1028 " />
  </g>
  <path
     d="m 868.70517,470.8399 c 10.40858,-4.04141 22.30097,-8.65895 34.0143,-13.20696"
     id="path612"
     inkscape:connector-curvature="0"
     style="fill:none;stroke:#000000;stroke-width:0.69056702" />
  <path
     d="m 580.57681,168.72244 c 0.26295,-11.81088 0.52517,-23.5848 0.78084,-35.06822"
     id="path460-4"
     inkscape:connector-curvature="0"
     style="fill:none;stroke:#000000;stroke-width:0.69039434;stroke-miterlimit:4;stroke-dasharray:none" />
  <polygon
     points="996.711,-936.4888 847.2378,-936.4888 847.2378,-877.6861 996.711,-877.6861 "
     id="polygon519"
     style="display:inline;fill:#29a38d;fill-opacity:0.99215686;stroke:none"
     transform="matrix(0.82542885,0,0,0.82542885,-32.054262,948.13127)" />
  <g
     style="display:inline;fill:#ffffff;fill-opacity:0.99215686;stroke:none"
     id="g3644"
     transform="matrix(0.69056699,0,0,0.69056699,89.522617,-174.83177)">
    <text
       transform="translate(4,1449)"
       x="921.97443"
       y="-919.68738"
       font-size="14.00"
       id="text521"
       style="font-style:normal;font-variant:normal;font-weight:normal;font-stretch:normal;font-size:14px;font-family:Rubik;-inkscape-font-specification:Rubik;text-anchor:middle;fill:#ffffff;fill-opacity:0.99215686;stroke:none">Curated an exhibition</text>
    <text
       x="921.97443"
       y="-902.88739"
       font-size="14.00"
       id="text523"
       style="font-style:normal;font-variant:normal;font-weight:normal;font-stretch:normal;font-size:14px;font-family:Rubik;-inkscape-font-specification:Rubik;text-anchor:middle;fill:#ffffff;fill-opacity:0.99215686;stroke:none"
       transform="translate(4,1449)">at VISUAL showcasing</text>
    <text
       x="921.97443"
       y="-886.0874"
       font-size="14.00"
       id="text525"
       style="font-style:normal;font-variant:normal;font-weight:normal;font-stretch:normal;font-size:14px;font-family:Rubik;-inkscape-font-specification:Rubik;text-anchor:middle;fill:#ffffff;fill-opacity:0.99215686;stroke:none"
       transform="translate(4,1449)">the community project</text>
  </g>
  <ellipse
     style="display:inline;opacity:0.98999999;vector-effect:none;fill:#fffffe;fill-opacity:1;fill-rule:evenodd;stroke:none;stroke-width:0.78442651;stroke-linecap:butt;stroke-linejoin:round;stroke-miterlimit:4;stroke-dasharray:none;stroke-dashoffset:0;stroke-opacity:1;paint-order:normal"
     id="path3360"
     cx="590.30609"
     cy="408.02896"
     rx="84.236183"
     ry="52.68536" />
  <g
     style="display:inline"
     id="g3366"
     transform="matrix(0.69056699,0,0,0.69056699,83.032884,-171.8047)">
    <text
       x="734.65747"
       y="817.54376"
       font-size="14.00"
       id="text14"
       style="font-style:normal;font-variant:normal;font-weight:normal;font-stretch:normal;font-size:26.00875854px;font-family:Rubik;-inkscape-font-specification:Rubik;text-anchor:middle;fill:#000000;stroke-width:1.85776842">
      <tspan
         style="font-style:normal;font-variant:normal;font-weight:bold;font-stretch:normal;font-family:Rubik;-inkscape-font-specification:'Rubik Bold';stroke-width:1.85776842"
         id="tspan1813">Clare Breen</tspan>
    </text>
    <text
       x="734.65747"
       y="848.75427"
       font-size="14.00"
       id="text16"
       style="font-style:normal;font-variant:normal;font-weight:normal;font-stretch:normal;font-size:26.00875854px;font-family:Rubik;-inkscape-font-specification:Rubik;text-anchor:middle;fill:#000000;stroke-width:1.85776842">Resident</text>
    <text
       x="734.65747"
       y="879.96484"
       font-size="14.00"
       id="text18"
       style="font-style:normal;font-variant:normal;font-weight:normal;font-stretch:normal;font-size:26.00875854px;font-family:Rubik;-inkscape-font-specification:Rubik;text-anchor:middle;fill:#000000;stroke-width:1.85776842">Artist</text>
  </g>
  <g
     style="display:inline"
     id="g4227"
     transform="matrix(0.69056699,0,0,0.69056699,83.032884,-154.90486)">
    <g
       style="fill:#b2b1b4;fill-opacity:0.99215686;stroke:none"
       transform="matrix(1.0821164,0,0,1.0821164,-106.3716,1533.1579)"
       id="node12"
       class="node">
      <title
         id="title303">node10</title>
      <polygon
         points="1456.0519,-1042.8615 1232.1231,-1042.8615 1232.1231,-1006.8615 1456.0519,-1006.8615 "
         id="polygon305"
         style="fill:#b2b1b4;fill-opacity:0.99215686;stroke:none" />
    </g>
    <text
       x="1344.0875"
       y="-1020.6615"
       font-size="14.00"
       id="text307"
       style="font-style:normal;font-variant:normal;font-weight:normal;font-stretch:normal;font-size:14px;font-family:Rubik;-inkscape-font-specification:Rubik;text-anchor:middle;fill:#000000"
       transform="translate(4,1449)">International Conference at VISUAL</text>
  </g>
  <text
     style="font-style:normal;font-variant:normal;font-weight:normal;font-stretch:normal;font-size:9.66793823px;font-family:Rubik;-inkscape-font-specification:Rubik;text-anchor:middle;display:inline;fill:#ffffff;stroke-width:0.69056702"
     id="text321"
     font-size="14.00"
     y="92.126389"
     x="926.50488">Exhibition during</text>
  <text
     style="font-style:normal;font-variant:normal;font-weight:normal;font-stretch:normal;font-size:9.66793823px;font-family:Rubik;-inkscape-font-specification:Rubik;text-anchor:middle;display:inline;fill:#ffffff;stroke-width:0.69056702"
     id="text323"
     font-size="14.00"
     y="103.72794"
     x="926.50488">International Conference</text>
  <text
     style="font-style:normal;font-variant:normal;font-weight:normal;font-stretch:normal;font-size:9.66793823px;font-family:Rubik;-inkscape-font-specification:Rubik;text-anchor:middle;display:inline;fill:#ffffff;stroke-width:0.69056702"
     id="text373"
     font-size="14.00"
     y="315.55597"
     x="132.03394">School-based residency</text>
  <text
     style="font-style:normal;font-variant:normal;font-weight:normal;font-stretch:normal;font-size:9.66793823px;font-family:Rubik;-inkscape-font-specification:Rubik;text-anchor:middle;display:inline;fill:#ffffff;stroke-width:0.69056702"
     id="text387"
     font-size="14.00"
     y="237.84361"
     x="150.64677">Exhibition in</text>
  <text
     style="font-style:normal;font-variant:normal;font-weight:normal;font-stretch:normal;font-size:9.66793823px;font-family:Rubik;-inkscape-font-specification:Rubik;text-anchor:middle;display:inline;fill:#ffffff;stroke-width:0.69056702"
     id="text389"
     font-size="14.00"
     y="249.44516"
     x="150.64677">Wexford Arts Center</text>
  <text
     style="font-style:normal;font-variant:normal;font-weight:normal;font-stretch:normal;font-size:9.66793823px;font-family:Rubik;-inkscape-font-specification:Rubik;text-anchor:middle;display:inline;fill:#ffffff;stroke-width:0.69056702"
     id="text403"
     font-size="14.00"
     y="166.14374"
     x="201.27773">breadfellows.school</text>
  <text
     style="font-style:normal;font-variant:normal;font-weight:normal;font-stretch:normal;font-size:9.66793823px;font-family:Rubik;-inkscape-font-specification:Rubik;text-anchor:middle;display:inline;fill:#ffffff;stroke-width:0.69056702"
     id="text405"
     font-size="14.00"
     y="177.74525"
     x="201.27773">Online pedagogical tool</text>
  <text
     style="font-style:normal;font-variant:normal;font-weight:normal;font-stretch:normal;font-size:9.66793823px;font-family:Rubik;-inkscape-font-specification:Rubik;text-anchor:middle;display:inline;fill:#ffffff;stroke-width:0.69056702"
     id="text407"
     font-size="14.00"
     y="189.34679"
     x="201.27773">and publication space</text>
  <g
     class="node"
     id="node20"
     transform="matrix(0.83905609,0,0,0.83905609,58.828083,939.20693)"
     style="display:inline;fill:#e4e1df;fill-opacity:0.99215686;stroke:none">
    <title
       id="title417">node16</title>
    <polygon
       style="fill:#e4e1df;fill-opacity:0.99215686;stroke:none"
       id="polygon419"
       points="170.9865,-631.7182 170.9865,-672.922 -0.1087,-672.922 -0.1087,-631.7182 " />
  </g>
  <text
     style="font-style:normal;font-variant:normal;font-weight:normal;font-stretch:normal;font-size:9.66793823px;font-family:Rubik;-inkscape-font-specification:Rubik;text-anchor:middle;display:inline;fill:#000000;stroke-width:0.69056702"
     id="text421"
     font-size="14.00"
     y="388.97345"
     x="130.51611">Commissioned lesson plans</text>
  <text
     style="font-style:normal;font-variant:normal;font-weight:normal;font-stretch:normal;font-size:9.66793823px;font-family:Rubik;-inkscape-font-specification:Rubik;text-anchor:middle;display:inline;fill:#000000;stroke-width:0.69056702"
     id="text423"
     font-size="14.00"
     y="400.57498"
     x="130.51611">for primary school teachers</text>
  <text
     style="font-style:normal;font-variant:normal;font-weight:normal;font-stretch:normal;font-size:9.66793823px;font-family:Rubik;-inkscape-font-specification:Rubik;text-anchor:middle;display:inline;fill:#ffffff;stroke-width:0.69056702"
     id="text437"
     font-size="14.00"
     y="38.996834"
     x="380.38556">Breadfellows' Chats</text>
  <text
     style="font-style:normal;font-variant:normal;font-weight:normal;font-stretch:normal;font-size:9.66793823px;font-family:Rubik;-inkscape-font-specification:Rubik;text-anchor:middle;display:inline;fill:#ffffff;stroke-width:0.69056702"
     id="text439"
     font-size="14.00"
     y="50.598396"
     x="380.38556">with Arts Action Group</text>
  <g
     class="node"
     id="node23"
     transform="matrix(0.79616159,0,0,0.79616159,-77.890176,769.03486)"
     style="display:inline;fill:#fc511c;fill-opacity:0.99215686;stroke:none">
    <title
       id="title449">node19</title>
    <polygon
       style="fill:#fc511c;fill-opacity:0.99215686;stroke:none"
       id="polygon451"
       points="731.0885,-822.5763 731.0885,-863.7801 603.969,-863.7801 603.969,-822.5763 " />
  </g>
  <text
     style="font-style:normal;font-variant:normal;font-weight:normal;font-stretch:normal;font-size:9.66793823px;font-family:Rubik;-inkscape-font-specification:Rubik;text-anchor:middle;display:inline;fill:#ffffff;stroke-width:0.69056702"
     id="text453"
     font-size="14.00"
     y="94.828423"
     x="453.57059">Breadfellows' Meal</text>
  <text
     style="font-style:normal;font-variant:normal;font-weight:normal;font-stretch:normal;font-size:9.66793823px;font-family:Rubik;-inkscape-font-specification:Rubik;text-anchor:middle;display:inline;fill:#ffffff;stroke-width:0.69056702"
     id="text455"
     font-size="14.00"
     y="106.42994"
     x="453.57059">at Gairdín Beo</text>
  <text
     style="font-style:normal;font-variant:normal;font-weight:normal;font-stretch:normal;font-size:9.66793823px;font-family:Rubik;-inkscape-font-specification:Rubik;text-anchor:middle;display:inline;fill:#000000;stroke-width:0.69056702"
     id="text469"
     font-size="14.00"
     y="87.733208"
     x="305.45139">Take a Part Carlow</text>
  <text
     style="font-style:normal;font-variant:normal;font-weight:normal;font-stretch:normal;font-size:9.66793823px;font-family:Rubik;-inkscape-font-specification:Rubik;text-anchor:middle;display:inline;fill:#000000;stroke-width:0.69056702"
     id="text471"
     font-size="14.00"
     y="99.33477"
     x="305.45139">Publication</text>
  <g
     class="node"
     id="node26"
     transform="matrix(0.85751626,0,0,0.85751626,25.930865,507.16268)"
     style="display:inline;fill:#76a9d9;fill-opacity:0.99215686;stroke:none">
    <title
       id="title481">node2111</title>
    <polygon
       style="fill:#76a9d9;fill-opacity:0.99215686;stroke:none"
       id="polygon483"
       points="1205.1137,-212.484 1059.4303,-212.484 1059.4303,-137.0835 1205.1137,-137.0835 " />
  </g>
  <text
     style="font-style:normal;font-variant:normal;font-weight:normal;font-stretch:normal;font-size:9.66793823px;font-family:Rubik;-inkscape-font-specification:Rubik;text-anchor:middle;display:inline;fill:#ffffff;stroke-width:0.69056702"
     id="text485"
     font-size="14.00"
     y="342.78088"
     x="996.87244">Facilitating workshops</text>
  <text
     style="font-style:normal;font-variant:normal;font-weight:normal;font-stretch:normal;font-size:9.66793823px;font-family:Rubik;-inkscape-font-specification:Rubik;text-anchor:middle;display:inline;fill:#ffffff;stroke-width:0.69056702"
     id="text487"
     font-size="14.00"
     y="354.38239"
     x="996.87244">for teacherswith Fingal</text>
  <text
     style="font-style:normal;font-variant:normal;font-weight:normal;font-stretch:normal;font-size:9.66793823px;font-family:Rubik;-inkscape-font-specification:Rubik;text-anchor:middle;display:inline;fill:#ffffff;stroke-width:0.69056702"
     id="text489"
     font-size="14.00"
     y="365.98392"
     x="996.87244">County Council</text>
  <text
     style="font-style:normal;font-variant:normal;font-weight:normal;font-stretch:normal;font-size:9.66793823px;font-family:Rubik;-inkscape-font-specification:Rubik;text-anchor:middle;display:inline;fill:#ffffff;stroke-width:0.69056702"
     id="text491"
     font-size="14.00"
     y="377.58548"
     x="996.87244">accredited by the ETB</text>
  <text
     style="font-style:normal;font-variant:normal;font-weight:normal;font-stretch:normal;font-size:9.66793823px;font-family:Rubik;-inkscape-font-specification:Rubik;text-anchor:middle;display:inline;fill:#ffffff;fill-opacity:1;stroke-width:0.69056702"
     id="text505"
     font-size="14.00"
     y="67.196854"
     x="714.3172">
    <tspan
       style="fill:#ffffff;fill-opacity:1;stroke-width:0.69056702"
       id="tspan3937">Produced a film</tspan>
  </text>
  <text
     style="font-style:normal;font-variant:normal;font-weight:normal;font-stretch:normal;font-size:9.66793823px;font-family:Rubik;-inkscape-font-specification:Rubik;text-anchor:middle;display:inline;fill:#ffffff;fill-opacity:1;stroke-width:0.69056702"
     id="text507"
     font-size="14.00"
     y="78.798409"
     x="714.3172">documenting the project</text>
  <text
     style="font-style:normal;font-variant:normal;font-weight:normal;font-stretch:normal;font-size:9.66793823px;font-family:Rubik;-inkscape-font-specification:Rubik;text-anchor:middle;display:inline;fill:#ffffff;fill-opacity:1;stroke-width:0.69056702"
     id="text539"
     font-size="14.00"
     y="125.43094"
     x="777.92413">Produced a website</text>
  <text
     style="font-style:normal;font-variant:normal;font-weight:normal;font-stretch:normal;font-size:9.66793823px;font-family:Rubik;-inkscape-font-specification:Rubik;text-anchor:middle;display:inline;fill:#ffffff;fill-opacity:1;stroke-width:0.69056702"
     id="text541"
     font-size="14.00"
     y="137.0325"
     x="777.92413">for the project</text>
  <text
     style="font-style:normal;font-variant:normal;font-weight:normal;font-stretch:normal;font-size:9.66793823px;font-family:Rubik;-inkscape-font-specification:Rubik;text-anchor:middle;display:inline;fill:#ffffff;fill-opacity:1;stroke-width:0.69056702"
     id="text543"
     font-size="14.00"
     y="148.63402"
     x="777.92413">at acupoftea.ie</text>
  <g
     class="node"
     id="node32"
     transform="matrix(0.79010642,0,0,0.79010642,54.907616,873.4557)"
     style="display:inline;fill:#031e42;fill-opacity:0.99215686;stroke:#031e42;stroke-opacity:0.99215686">
    <title
       id="title553">node27</title>
    <polygon
       style="fill:#031e42;fill-opacity:0.99215686;stroke:#031e42;stroke-opacity:0.99215686"
       id="polygon555"
       points="162.7602,-374.3598 297.6734,-374.3598 297.6734,-415.5636 162.7602,-415.5636 " />
  </g>
  <text
     style="font-style:normal;font-variant:normal;font-weight:normal;font-stretch:normal;font-size:9.66793823px;font-family:Rubik;-inkscape-font-specification:Rubik;text-anchor:middle;display:inline;fill:#000000;stroke-width:0.69056702"
     id="text557"
     font-size="14.00"
     y="558.49353"
     x="236.80339">
    <tspan
       style="fill:#ffffff;fill-opacity:1;stroke-width:0.69056702"
       id="tspan3931">Artist research</tspan>
  </text>
  <text
     style="font-style:normal;font-variant:normal;font-weight:normal;font-stretch:normal;font-size:9.66793823px;font-family:Rubik;-inkscape-font-specification:Rubik;text-anchor:middle;display:inline;fill:#000000;stroke-width:0.69056702"
     id="text559"
     font-size="14.00"
     y="570.09509"
     x="236.80339">
    <tspan
       style="fill:#ffffff;fill-opacity:1;stroke-width:0.69056702"
       id="tspan3933">residency in Donegal</tspan>
  </text>
  <g
     id="g14366"
     transform="translate(-85.425319,-128.52278)">
    <g
       style="fill:#fb511d;fill-opacity:0.99215686;stroke:#fa511e;stroke-opacity:0.99215686"
       transform="matrix(0.81644071,0,0,0.81644071,49.715611,872.45956)"
       id="node33"
       class="node">
      <title
         id="title569">node28</title>
      <polygon
         points="351.8142,-313.973 221.4515,-313.973 221.4515,-277.973 351.8142,-277.973 "
         id="polygon571"
         style="fill:#fb511d;fill-opacity:0.99215686;stroke:#fa511e;stroke-opacity:0.99215686" />
    </g>
    <text
       x="283.73431"
       y="633.71558"
       font-size="14.00"
       id="text573"
       style="font-style:normal;font-variant:normal;font-weight:normal;font-stretch:normal;font-size:9.66793823px;font-family:Rubik;-inkscape-font-specification:Rubik;text-anchor:middle;display:inline;fill:#000000;stroke-width:0.69056702">
      <tspan
         id="tspan3935"
         style="fill:#ffffff;fill-opacity:1;stroke-width:0.69056702">Breadfellows' Chats</tspan>
    </text>
  </g>
  <g
     id="g14373"
     transform="translate(26.935911,0.76959747)">
    <g
       style="fill:#e4e1df;fill-opacity:0.99215686;stroke:none;stroke-opacity:1"
       transform="matrix(0.84483061,0,0,0.84483061,-132.02063,795.77817)"
       id="node37"
       class="node">
      <title
         id="title583">node32</title>
      <polygon
         points="1461.3026,-340.1983 1461.3026,-381.4021 1324.4973,-381.4021 1324.4973,-340.1983 "
         id="polygon585"
         style="fill:#e4e1df;fill-opacity:0.99215686;stroke:none;stroke-opacity:1" />
    </g>
    <text
       x="1044.744"
       y="488.06271"
       font-size="14.00"
       id="text587"
       style="font-style:normal;font-variant:normal;font-weight:normal;font-stretch:normal;font-size:9.66793823px;font-family:Rubik;-inkscape-font-specification:Rubik;text-anchor:middle;display:inline;fill:#000000;stroke-width:0.69056702">documentation award</text>
    <text
       x="1044.744"
       y="499.66428"
       font-size="14.00"
       id="text589"
       style="font-style:normal;font-variant:normal;font-weight:normal;font-stretch:normal;font-size:9.66793823px;font-family:Rubik;-inkscape-font-specification:Rubik;text-anchor:middle;display:inline;fill:#000000;stroke-width:0.69056702">winner 2018</text>
  </g>
  <g
     id="g4236"
     style="display:inline;fill:#ffffff"
     transform="matrix(0.69056699,0,0,0.69056699,83.032884,-165.4272)">
    <text
       x="1297.9501"
       y="852.06488"
       font-size="14.00"
       id="text603"
       style="font-style:normal;font-variant:normal;font-weight:normal;font-stretch:normal;font-size:14px;font-family:Rubik;-inkscape-font-specification:Rubik;text-anchor:middle;fill:#ffffff">contributor to the Regional</text>
    <text
       x="1297.9501"
       y="868.86487"
       font-size="14.00"
       id="text605"
       style="font-style:normal;font-variant:normal;font-weight:normal;font-stretch:normal;font-size:14px;font-family:Rubik;-inkscape-font-specification:Rubik;text-anchor:middle;fill:#ffffff">and National Portal</text>
    <text
       x="1297.9501"
       y="885.66492"
       font-size="14.00"
       id="text607"
       style="font-style:normal;font-variant:normal;font-weight:normal;font-stretch:normal;font-size:14px;font-family:Rubik;-inkscape-font-specification:Rubik;text-anchor:middle;fill:#ffffff">Conferences, 2018</text>
  </g>
  <g
     class="node"
     id="node15"
     transform="matrix(0.80008187,0,0,0.80008187,-38.495968,924.94831)"
     style="display:inline;fill:#fb511d;fill-opacity:0.99215686;stroke:none;stroke-opacity:0.99215686">
    <title
       id="title351">node122</title>
    <polygon
       style="fill:#fb511d;fill-opacity:0.99215686;stroke:none;stroke-opacity:0.99215686"
       id="polygon353"
       points="1123.3119,-893.5667 1123.3119,-834.7639 1258.1915,-834.7639 1258.1915,-893.5667 " />
  </g>
  <g
     style="display:inline;fill:#ffffff;stroke:none"
     id="g3649"
     transform="matrix(0.69056699,0,0,0.69056699,89.146819,-170.3222)">
    <text
       x="1190.7517"
       y="-876.76532"
       font-size="14.00"
       id="text355"
       style="font-style:normal;font-variant:normal;font-weight:normal;font-stretch:normal;font-size:14px;font-family:Rubik;-inkscape-font-specification:Rubik;text-anchor:middle;fill:#ffffff;stroke:none"
       transform="translate(4,1449)">Breadfellows' Chats</text>
    <text
       x="1190.7517"
       y="-859.96527"
       font-size="14.00"
       id="text357"
       style="font-style:normal;font-variant:normal;font-weight:normal;font-stretch:normal;font-size:14px;font-family:Rubik;-inkscape-font-specification:Rubik;text-anchor:middle;fill:#ffffff;stroke:none"
       transform="translate(4,1449)">with researchers,</text>
    <text
       x="1190.7517"
       y="-843.16528"
       font-size="14.00"
       id="text359"
       style="font-style:normal;font-variant:normal;font-weight:normal;font-stretch:normal;font-size:14px;font-family:Rubik;-inkscape-font-specification:Rubik;text-anchor:middle;fill:#ffffff;stroke:none"
       transform="translate(4,1449)">teachers and children</text>
  </g>
  <g
     class="node"
     id="node11"
     transform="matrix(0.88021264,0,0,0.88021264,-160.75473,982.87894)"
     style="display:inline;fill:#76a9da;fill-opacity:0.99215686;stroke:none">
    <title
       id="title289">node8</title>
    <polygon
       style="fill:#76a9da;fill-opacity:0.99215686;stroke:none"
       id="polygon291"
       points="1298.9858,-802.1491 1298.9858,-766.1491 1421.2904,-766.1491 1421.2904,-802.1491 " />
  </g>
  <text
     style="font-style:normal;font-variant:normal;font-weight:normal;font-stretch:normal;font-size:9.66793823px;font-family:Rubik;-inkscape-font-specification:Rubik;text-anchor:middle;display:inline;fill:#ffffff;stroke-width:0.69056702"
     id="text293"
     font-size="14.00"
     y="295.56143"
     x="1036.4559">School Workshops</text>
  <g
     class="node"
     id="node14"
     transform="matrix(0.78867508,0,0,0.78867508,-37.603493,920.24452)"
     style="display:inline;fill:#031e42;fill-opacity:0.99215686;stroke:none">
    <title
       id="title333">node12</title>
    <polygon
       style="fill:#031e42;fill-opacity:0.99215686;stroke:none"
       id="polygon335"
       points="1296.2024,-875.3188 1479.3829,-875.3188 1479.3829,-934.1216 1296.2024,-934.1216 " />
  </g>
  <g
     style="display:inline;fill:#ffffff;fill-opacity:0.99215686;stroke:none"
     id="g3654"
     transform="matrix(0.69056699,0,0,0.69056699,95.78789,-169.14741)">
    <text
       x="1387.7927"
       y="-917.32019"
       font-size="14.00"
       id="text337"
       style="font-style:normal;font-variant:normal;font-weight:normal;font-stretch:normal;font-size:14px;font-family:Rubik;-inkscape-font-specification:Rubik;text-anchor:middle;fill:#ffffff;fill-opacity:0.99215686;stroke:none"
       transform="translate(4,1449)">Ongoing research into</text>
    <text
       x="1387.7927"
       y="-900.5202"
       font-size="14.00"
       id="text339"
       style="font-style:normal;font-variant:normal;font-weight:normal;font-stretch:normal;font-size:14px;font-family:Rubik;-inkscape-font-specification:Rubik;text-anchor:middle;fill:#ffffff;fill-opacity:0.99215686;stroke:none"
       transform="translate(4,1449)">relational practice</text>
    <text
       x="1387.7927"
       y="-883.72021"
       font-size="14.00"
       id="text341"
       style="font-style:normal;font-variant:normal;font-weight:normal;font-stretch:normal;font-size:14px;font-family:Rubik;-inkscape-font-specification:Rubik;text-anchor:middle;fill:#ffffff;fill-opacity:0.99215686;stroke:none"
       transform="translate(4,1449)">in Early Childhood Education</text>
  </g>
  <text
     style="font-style:normal;font-variant:normal;font-weight:normal;font-stretch:normal;font-size:17.96079063px;font-family:Rubik;-inkscape-font-specification:Rubik;text-anchor:middle;display:inline;fill:#000000;stroke-width:1.28291357"
     id="text14-3"
     font-size="14.00"
     y="820.00433"
     x="1029.0331">
    <tspan
       id="tspan1813-5"
       style="font-style:normal;font-variant:normal;font-weight:300;font-stretch:normal;font-family:'Rubik Light';-inkscape-font-specification:'Rubik Light,  Light';stroke-width:1.28291357">Clare Breen 2019 progress report</tspan>
  </text>
  <g
     class="node"
     id="node11-9"
     transform="matrix(0.88021264,0,0,0.88021264,-612.86335,822.43599)"
     style="display:inline;fill:#76a9da;fill-opacity:0.99215686;stroke:none">
    <title
       id="title289-6">node8</title>
    <polygon
       style="fill:#76a9da;fill-opacity:0.99215686;stroke:none"
       id="polygon291-0"
       points="1298.9858,-766.1491 1421.2904,-766.1491 1421.2904,-802.1491 1298.9858,-802.1491 " />
  </g>
  <text
     style="font-style:normal;font-variant:normal;font-weight:normal;font-stretch:normal;font-size:9.66793728px;font-family:Rubik;-inkscape-font-specification:Rubik;text-anchor:middle;display:inline;fill:#ffffff;stroke-width:0.69056696"
     id="text293-6"
     font-size="14.00"
     y="135.11844"
     x="584.34729">School Workshops</text>
  <g
     style="display:inline"
     id="g1432"
     transform="matrix(0.69056699,0,0,0.69056699,83.032884,-165.4272)">
    <g
       transform="translate(4,1449)"
       id="node10"
       class="node">
      <title
         id="title35">node7</title>
      <polygon
         points="961.1373,-783.956 1168.3376,-783.956 1206.8137,-819.956 999.6134,-819.956 "
         id="polygon37"
         style="fill:none;stroke:#000000" />
    </g>
    <text
       x="1083.9755"
       y="-797.75598"
       font-size="14.00"
       id="text39"
       style="font-style:normal;font-variant:normal;font-weight:normal;font-stretch:normal;font-size:14px;font-family:Rubik;-inkscape-font-specification:Rubik;text-anchor:middle;fill:#000000"
       transform="translate(4,1449)">
      <tspan
         style="font-style:normal;font-variant:normal;font-weight:bold;font-stretch:normal;font-family:Rubik;-inkscape-font-specification:'Rubik Bold'"
         id="tspan3548">Thriece Partnership</tspan>
    </text>
  </g>
  <g
     style="display:inline"
     id="g1492"
     transform="matrix(0.69056699,0,0,0.69056699,83.032884,-165.4272)">
    <g
       transform="translate(4,1449)"
       id="node16"
       class="node">
      <title
         id="title49">node9</title>
      <polygon
         points="260.3738,-705.7572 464.6403,-705.7572 502.5716,-741.7572 298.3051,-741.7572 "
         id="polygon51"
         style="fill:none;stroke:#000000" />
    </g>
    <text
       x="381.47269"
       y="-719.55719"
       font-size="14.00"
       id="text53"
       style="font-style:normal;font-variant:normal;font-weight:normal;font-stretch:normal;font-size:14px;font-family:Rubik;-inkscape-font-specification:Rubik;text-anchor:middle;fill:#000000"
       transform="translate(4,1449)">
      <tspan
         style="font-style:normal;font-variant:normal;font-weight:bold;font-stretch:normal;font-family:Rubik;-inkscape-font-specification:'Rubik Bold'"
         id="tspan3538">Living Arts Project</tspan>
    </text>
  </g>
  <g
     class="node"
     id="node21"
     transform="matrix(0.69056699,0,0,0.69056699,85.795152,835.20437)"
     style="display:inline;fill:#ffffff">
    <title
       id="title63">node17</title>
    <polygon
       style="fill:#ffffff;stroke:#000000"
       id="polygon65"
       points="592.2336,-863.0681 387.6125,-863.0681 349.6154,-827.0681 554.2364,-827.0681 " />
  </g>
  <g
     style="display:inline"
     id="g3627"
     transform="matrix(0.69056699,0,0,0.69056699,142.55932,-350.71128)">
    <polygon
       transform="matrix(0.76395161,0,0,0.5510239,223.06408,1284.7287)"
       style="fill:none;stroke:#000000;stroke-width:1.54089582;stroke-miterlimit:4;stroke-dasharray:none"
       id="polygon79"
       points="1014.781,-464.8537 860.7035,-464.8537 832.092,-314.0527 986.1695,-314.0527 " />
    <text
       x="927.43652"
       y="1055.3468"
       font-size="14.00"
       id="text83"
       style="font-style:normal;font-variant:normal;font-weight:bold;font-stretch:normal;font-size:14px;font-family:Rubik;-inkscape-font-specification:'Rubik Bold';text-anchor:middle;fill:#000000">Continued</text>
    <text
       x="927.43652"
       y="1072.1467"
       font-size="14.00"
       id="text85"
       style="font-style:normal;font-variant:normal;font-weight:bold;font-stretch:normal;font-size:14px;font-family:Rubik;-inkscape-font-specification:'Rubik Bold';text-anchor:middle;fill:#000000">Professional</text>
    <text
       x="927.43652"
       y="1088.9468"
       font-size="14.00"
       id="text87"
       style="font-style:normal;font-variant:normal;font-weight:bold;font-stretch:normal;font-size:14px;font-family:Rubik;-inkscape-font-specification:'Rubik Bold';text-anchor:middle;fill:#000000">Development</text>
  </g>
  <g
     class="node"
     id="node27"
     transform="matrix(0.69056699,0,0,0.69056699,85.795152,835.20437)"
     style="display:inline;fill:#ffffff">
    <title
       id="title97">node22</title>
    <polygon
       style="fill:#ffffff;stroke:#000000"
       id="polygon99"
       points="963.8789,-864.4632 811.8422,-864.4632 783.6097,-828.4632 935.6464,-828.4632 " />
  </g>
  <g
     style="display:inline"
     class="node"
     id="node31"
     transform="matrix(0.69056699,0,0,0.69056699,85.795152,835.20437)">
    <title
       id="title111">node26</title>
    <polygon
       style="fill:none;stroke:#000000"
       id="polygon113"
       points="571.5701,-508.5558 423.4011,-508.5558 395.8868,-425.1553 544.0558,-425.1553 " />
  </g>
  <text
     style="font-style:normal;font-variant:normal;font-weight:normal;font-stretch:normal;font-size:9.66793823px;font-family:Rubik;-inkscape-font-specification:Rubik;text-anchor:middle;display:inline;fill:#000000;stroke-width:0.69056702"
     id="text115"
     font-size="14.00"
     y="509.90891"
     x="419.84207">
    <tspan
       style="font-style:normal;font-variant:normal;font-weight:bold;font-stretch:normal;font-family:Rubik;-inkscape-font-specification:'Rubik Bold';stroke-width:0.69056702"
       id="tspan3528">Lay of the</tspan>
  </text>
  <text
     style="font-style:normal;font-variant:normal;font-weight:normal;font-stretch:normal;font-size:9.66793823px;font-family:Rubik;-inkscape-font-specification:Rubik;text-anchor:middle;display:inline;fill:#000000;stroke-width:0.69056702"
     id="text117"
     font-size="14.00"
     y="521.51044"
     x="419.84207">
    <tspan
       style="font-style:normal;font-variant:normal;font-weight:bold;font-stretch:normal;font-family:Rubik;-inkscape-font-specification:'Rubik Bold';stroke-width:0.69056702"
       id="tspan3530">Land Project</tspan>
  </text>
  <g
     style="display:inline"
     id="g1483"
     transform="matrix(0.69056699,0,0,0.69056699,83.032884,-165.4272)">
    <g
       transform="translate(4,1449)"
       id="node34"
       class="node">
      <title
         id="title127">node29</title>
      <polygon
         points="277.2532,-530.0066 538.0013,-530.0066 586.421,-646.607 325.6729,-646.607 "
         id="polygon129"
         style="fill:none;stroke:#000000" />
    </g>
    <text
       x="431.8371"
       y="-600.9068"
       font-size="14.00"
       id="text131"
       style="font-style:normal;font-variant:normal;font-weight:normal;font-stretch:normal;font-size:14px;font-family:Rubik;-inkscape-font-specification:Rubik;text-anchor:middle;fill:#000000"
       transform="translate(4,1449)">
      <tspan
         style="font-style:normal;font-variant:normal;font-weight:bold;font-stretch:normal;font-family:Rubik;-inkscape-font-specification:'Rubik Bold'"
         id="tspan3532">Summer School</tspan>
    </text>
    <text
       x="431.8371"
       y="-584.10681"
       font-size="14.00"
       id="text133"
       style="font-style:normal;font-variant:normal;font-weight:normal;font-stretch:normal;font-size:14px;font-family:Rubik;-inkscape-font-specification:Rubik;text-anchor:middle;fill:#000000"
       transform="translate(4,1449)">
      <tspan
         style="font-style:normal;font-variant:normal;font-weight:bold;font-stretch:normal;font-family:Rubik;-inkscape-font-specification:'Rubik Bold'"
         id="tspan3534">workshop at Temple Bar</tspan>
    </text>
    <text
       x="431.8371"
       y="-567.30682"
       font-size="14.00"
       id="text135"
       style="font-style:normal;font-variant:normal;font-weight:normal;font-stretch:normal;font-size:14px;font-family:Rubik;-inkscape-font-specification:Rubik;text-anchor:middle;fill:#000000"
       transform="translate(4,1449)">
      <tspan
         style="font-style:normal;font-variant:normal;font-weight:bold;font-stretch:normal;font-family:Rubik;-inkscape-font-specification:'Rubik Bold'"
         id="tspan3536">Gallery and Studios</tspan>
    </text>
  </g>
  <g
     style="display:inline"
     id="g1414"
     transform="matrix(0.69056699,0,0,0.69056699,83.032884,-165.4272)">
    <g
       transform="translate(4,1449)"
       id="node35"
       class="node">
      <title
         id="title145">node30</title>
      <polygon
         points="571.0754,-876.181 789.6193,-876.181 830.2018,-959.5814 611.658,-959.5814 "
         id="polygon147"
         style="fill:none;stroke:#000000" />
    </g>
    <text
       x="700.63861"
       y="-922.08118"
       font-size="14.00"
       id="text149"
       style="font-style:normal;font-variant:normal;font-weight:normal;font-stretch:normal;font-size:14px;font-family:Rubik;-inkscape-font-specification:Rubik;text-anchor:middle;fill:#000000"
       transform="translate(4,1449)">
      <tspan
         style="font-style:normal;font-variant:normal;font-weight:bold;font-stretch:normal;font-family:Rubik;-inkscape-font-specification:'Rubik Bold'"
         id="tspan3542">Cashel Arts Festival</tspan>
    </text>
    <text
       x="700.63861"
       y="-905.28119"
       font-size="14.00"
       id="text151"
       style="font-style:normal;font-variant:normal;font-weight:normal;font-stretch:normal;font-size:14px;font-family:Rubik;-inkscape-font-specification:Rubik;text-anchor:middle;fill:#000000"
       transform="translate(4,1449)">
      <tspan
         style="font-style:normal;font-variant:normal;font-weight:bold;font-stretch:normal;font-family:Rubik;-inkscape-font-specification:'Rubik Bold'"
         id="tspan3544">School Workshops</tspan>
    </text>
  </g>
  <g
     style="display:inline"
     id="g1441"
     transform="matrix(0.69056699,0,0,0.69056699,83.032884,-165.4272)">
    <g
       transform="translate(4,1449)"
       id="node36"
       class="node">
      <title
         id="title161">node31</title>
      <polygon
         points="930.8409,-476.7928 1180.4101,-476.7928 1226.754,-512.7928 977.1847,-512.7928 "
         id="polygon163"
         style="fill:none;stroke:#000000" />
    </g>
    <text
       x="1078.7974"
       y="-490.5928"
       font-size="14.00"
       id="text165"
       style="font-style:normal;font-variant:normal;font-weight:normal;font-stretch:normal;font-size:14px;font-family:Rubik;-inkscape-font-specification:Rubik;text-anchor:middle;fill:#000000"
       transform="translate(4,1449)">
      <tspan
         style="font-style:normal;font-variant:normal;font-weight:bold;font-stretch:normal;font-family:Rubik;-inkscape-font-specification:'Rubik Bold'"
         id="tspan3550">Arts in Education Portal</tspan>
    </text>
  </g>
  <text
     style="font-style:normal;font-variant:normal;font-weight:normal;font-stretch:normal;font-size:9.66793823px;font-family:Rubik;-inkscape-font-specification:Rubik;text-anchor:middle;display:inline;fill:#000000;stroke-width:0.69056702"
     id="text101"
     font-size="14.00"
     y="253.56522"
     x="689.17413">
    <tspan
       id="tspan3546"
       style="font-style:normal;font-variant:normal;font-weight:bold;font-stretch:normal;font-family:Rubik;-inkscape-font-specification:'Rubik Bold';stroke-width:0.69056702">A Cup of Tea</tspan>
  </text>
  <text
     style="font-style:normal;font-variant:normal;font-weight:normal;font-stretch:normal;font-size:9.66793823px;font-family:Rubik;-inkscape-font-specification:Rubik;text-anchor:middle;display:inline;fill:#000000;stroke-width:0.69056702"
     id="text67"
     font-size="14.00"
     y="254.52861"
     x="411.00006">
    <tspan
       id="tspan3540"
       style="font-style:normal;font-variant:normal;font-weight:bold;font-stretch:normal;font-family:Rubik;-inkscape-font-specification:'Rubik Bold';stroke-width:0.69056702">Take a Part Carlow</tspan>
  </text>
  <g
     transform="matrix(0.52494128,0,0,0.52494128,243.72965,451.80256)"
     id="g4097-0">
    <g
       id="g4302"
       transform="translate(-5.8468864,-13.642735)">
      <text
         x="-367.00143"
         y="521.70673"
         font-size="14.00"
         id="text10-3"
         style="font-style:normal;font-variant:normal;font-weight:normal;font-stretch:normal;font-size:14px;font-family:Rubik;-inkscape-font-specification:Rubik;text-anchor:middle;fill:#000000">Practice aspects</text>
      <g
         id="g4008-4"
         transform="translate(62.037384)">
        <polygon
           transform="matrix(1.0882773,0,0,1,-425.32696,724.50675)"
           style="fill:#76a9d8;fill-opacity:0.99215686;stroke:none"
           id="polygon15-6"
           points="146.0934,-414 146.0934,-378 318.7,-378 318.7,-414 " />
        <text
           style="font-style:normal;font-variant:normal;font-weight:normal;font-stretch:normal;font-size:14px;font-family:Rubik;-inkscape-font-specification:Rubik;text-anchor:middle;fill:#fffffe;fill-opacity:1"
           id="text17-3"
           font-size="14.00"
           y="332.70676"
           x="-172.95908">Workshops &amp; Presentations</text>
      </g>
      <path
         style="fill:none;stroke:#000000"
         d="m -348.00218,499.44015 c 11.02102,-29.30941 30.77323,-54.29234 49.36025,-79.14725 24.85119,-31.16525 50.99676,-62.057 82.62166,-86.58693"
         id="path22-6"
         inkscape:connector-curvature="0" />
      <g
         id="g4012-3"
         transform="translate(65.382208)">
        <polygon
           transform="matrix(1.0864446,0,0,1,-422.99637,724.50675)"
           style="fill:#fa511e;fill-opacity:0.99215686;stroke:none"
           id="polygon29-3"
           points="141.116,-324 323.6774,-324 323.6774,-360 141.116,-360 " />
        <text
           style="font-style:normal;font-variant:normal;font-weight:normal;font-stretch:normal;font-size:14px;font-family:Rubik;-inkscape-font-specification:Rubik;text-anchor:middle;fill:#fffffe;fill-opacity:1"
           id="text31-4"
           font-size="14.00"
           y="386.70676"
           x="-172.95908">Breadfellows' Chats &amp; Meals</text>
      </g>
      <path
         style="fill:none;stroke:#000000"
         d="m -342.74138,499.36825 c 19.17245,-27.53066 44.91184,-49.70816 69.46024,-72.29064 18.05745,-15.52047 36.10203,-31.50395 56.65383,-43.68816"
         id="path36-4"
         inkscape:connector-curvature="0" />
      <g
         id="g4016-3"
         transform="translate(8.7204349)">
        <polygon
           transform="translate(-405.35578,724.50675)"
           style="fill:#2aa38d;fill-opacity:0.99215686;stroke:none"
           id="polygon43-9"
           points="272.4575,-306 192.3359,-306 192.3359,-270 272.4575,-270 " />
        <text
           style="font-style:normal;font-variant:normal;font-weight:normal;font-stretch:normal;font-size:14px;font-family:Rubik;-inkscape-font-specification:Rubik;text-anchor:middle;fill:#fffffe;fill-opacity:1"
           id="text45-7"
           font-size="14.00"
           y="440.70676"
           x="-172.95908">Exhibitions</text>
      </g>
      <path
         style="fill:none;stroke:#000000"
         d="m -327.11378,499.32365 c 30.07864,-20.58435 59.61988,-43.50554 95.17974,-53.81361 5.1742,-1.7364 10.38429,-3.36503 15.61948,-4.9075"
         id="path50-2"
         inkscape:connector-curvature="0" />
      <g
         id="g4020-5"
         transform="translate(8.6772349)">
        <polygon
           transform="translate(-405.35578,724.50675)"
           style="fill:#b2b1b4;fill-opacity:0.99215686;stroke:none"
           id="polygon57-8"
           points="272.4143,-252 192.3791,-252 192.3791,-216 272.4143,-216 " />
        <text
           style="font-style:normal;font-variant:normal;font-weight:normal;font-stretch:normal;font-size:14px;font-family:Rubik;-inkscape-font-specification:Rubik;text-anchor:middle;fill:#000000"
           id="text59-9"
           font-size="14.00"
           y="494.70676"
           x="-172.95908">Conference</text>
      </g>
      <path
         style="fill:none;stroke:#000000"
         d="m -300.33638,509.62465 c 28.0336,-4.23351 55.98861,-8.97086 84.02182,-13.20686"
         id="path64-0"
         inkscape:connector-curvature="0" />
      <g
         id="g4024-2"
         transform="translate(35.526725)">
        <polygon
           transform="matrix(1.1227862,0,0,1,-436.06764,724.50675)"
           style="fill:#e3e0de;fill-opacity:0.99215686;stroke:none"
           id="polygon71-4"
           points="174.7808,-162 290.0126,-162 290.0126,-198 174.7808,-198 " />
        <text
           style="font-style:normal;font-variant:normal;font-weight:normal;font-stretch:normal;font-size:14px;font-family:Rubik;-inkscape-font-specification:Rubik;text-anchor:middle;fill:#000000"
           id="text73-7"
           font-size="14.00"
           y="548.70673"
           x="-172.95908">Written resources</text>
      </g>
      <path
         style="fill:none;stroke:#000000"
         d="m -300.33638,525.38885 c 28.06036,4.38141 55.95756,9.75733 84.02182,14.11538"
         id="path78-6"
         inkscape:connector-curvature="0" />
      <g
         id="g4028-5"
         transform="translate(-0.47066537)">
        <polygon
           transform="translate(-405.35578,724.50675)"
           style="fill:#82ba9c;fill-opacity:0.99215686;stroke:none"
           id="polygon85-7"
           points="263.2664,-144 201.527,-144 201.527,-108 263.2664,-108 " />
        <text
           style="font-style:normal;font-variant:normal;font-weight:normal;font-stretch:normal;font-size:14px;font-family:Rubik;-inkscape-font-specification:Rubik;text-anchor:middle;fill:#fffffe;fill-opacity:1"
           id="text87-1-1"
           font-size="14.00"
           y="602.70673"
           x="-172.95908">Website</text>
      </g>
      <path
         style="fill:none;stroke:#000000"
         d="m -327.11378,535.68985 c 24.1933,17.02983 47.145,37.05814 75.84344,46.19094 11.47263,4.23301 23.16723,7.84465 34.95578,11.08607"
         id="path92-7-3"
         inkscape:connector-curvature="0" />
      <g
         id="g4032-3"
         transform="translate(-4.3403654)">
        <polygon
           transform="translate(-405.35578,724.50675)"
           style="fill:#f48961;fill-opacity:0.99215686;stroke:none"
           id="polygon99-6-3"
           points="259.3967,-90 205.3967,-90 205.3967,-54 259.3967,-54 " />
        <text
           style="font-style:normal;font-variant:normal;font-weight:normal;font-stretch:normal;font-size:14px;font-family:Rubik;-inkscape-font-specification:Rubik;text-anchor:middle;fill:#fffffe;fill-opacity:1"
           id="text101-0-8"
           font-size="14.00"
           y="656.70673"
           x="-172.95908">Film</text>
      </g>
      <path
         style="fill:none;stroke:#000000"
         d="m -342.74138,535.64525 c 21.06736,36.35686 42.20799,76.27769 80.18098,97.57455 14.4571,7.82867 30.27165,12.84761 46.24584,16.51198"
         id="path106-2-5"
         inkscape:connector-curvature="0" />
      <g
         id="g4036-1"
         transform="translate(6.8140269)">
        <polygon
           transform="matrix(1.1368483,0,0,1,-436.88677,724.50675)"
           style="fill:#041f42;fill-opacity:0.99215686;stroke:none"
           id="polygon113-7-0"
           points="198.5958,0 266.1976,0 266.1976,-36 198.5958,-36 " />
        <text
           style="font-style:normal;font-variant:normal;font-weight:normal;font-stretch:normal;font-size:14px;font-family:Rubik;-inkscape-font-specification:Rubik;text-anchor:middle;fill:#fffffe;fill-opacity:1"
           id="text115-9-8"
           font-size="14.00"
           y="710.70673"
           x="-172.95908">Research</text>
      </g>
      <path
         style="fill:none;stroke:#000000"
         d="m -348.00218,535.57335 c 15.92325,51.45358 38.64515,103.37937 79.22806,140.21548 14.49242,13.24226 33.28501,20.52018 52.12584,25.02462"
         id="path120-7"
         inkscape:connector-curvature="0" />
    </g>
  </g>
  <g
     id="g14394"
     transform="translate(-60.743506,-4.4308492)">
    <polygon
       transform="matrix(0.7797042,0,0,0.7797042,108.77655,784.74892)"
       style="display:inline;fill:#76a9db;fill-opacity:0.99215686;stroke:none"
       id="polygon177"
       points="566.3922,-90.3901 566.3922,-165.7907 376.6001,-165.7907 376.6001,-90.3901 " />
    <g
       style="display:inline;fill:#ffffff"
       transform="matrix(0.69056699,0,0,0.69056699,148.04213,-227.30034)"
       id="g1582">
      <text
         transform="translate(4,1449)"
         style="font-style:normal;font-variant:normal;font-weight:normal;font-stretch:normal;font-size:14px;font-family:Rubik;-inkscape-font-specification:Rubik;text-anchor:middle;fill:#ffffff"
         id="text179"
         font-size="14.00"
         y="-149.09039"
         x="471.49609">Schools Workshops : more</text>
      <text
         transform="translate(4,1449)"
         style="font-style:normal;font-variant:normal;font-weight:normal;font-stretch:normal;font-size:14px;font-family:Rubik;-inkscape-font-specification:Rubik;text-anchor:middle;fill:#ffffff"
         id="text181"
         font-size="14.00"
         y="-132.29041"
         x="471.49609">than 80 workshops with</text>
      <text
         transform="translate(4,1449)"
         style="font-style:normal;font-variant:normal;font-weight:normal;font-stretch:normal;font-size:14px;font-family:Rubik;-inkscape-font-specification:Rubik;text-anchor:middle;fill:#ffffff"
         id="text183"
         font-size="14.00"
         y="-115.4904"
         x="471.49609">schools from across the county</text>
      <text
         transform="translate(4,1449)"
         style="font-style:normal;font-variant:normal;font-weight:normal;font-stretch:normal;font-size:14px;font-family:Rubik;-inkscape-font-specification:Rubik;text-anchor:middle;fill:#ffffff"
         id="text185"
         font-size="14.00"
         y="-98.690399"
         x="471.49609">and home-schooled children</text>
    </g>
  </g>
  <g
     id="g14404"
     transform="translate(-34.203721,10.455587)">
    <polygon
       transform="matrix(0.77522159,0,0,0.77522159,75.411504,767.91518)"
       style="display:inline;fill:#29a48e;fill-opacity:0.67843137;stroke:none"
       id="polygon211"
       points="495.5825,-36.0808 495.5825,-0.0808 708.0333,-0.0808 708.0333,-36.0808 " />
    <text
       x="541.94598"
       y="756.79889"
       font-size="14.00"
       id="text213"
       style="font-style:normal;font-variant:normal;font-weight:normal;font-stretch:normal;font-size:9.66793823px;font-family:Rubik;-inkscape-font-specification:Rubik;text-anchor:middle;display:inline;fill:#ffffff;fill-opacity:1;stroke:none;stroke-width:0.69056702">Ceramics exhibited in main gallery</text>
  </g>
  <g
     id="g14386"
     transform="translate(7.6959747,35.401483)">
    <g
       transform="matrix(0.80150989,0,0,0.80150989,65.777583,779.77645)"
       id="node6"
       class="node"
       style="display:inline;fill:#28a48e;fill-opacity:0.67843137;stroke:none">
      <title
         id="title223">node2</title>
      <polygon
         points="725.284,-83.6793 725.284,-24.8765 902.1552,-24.8765 902.1552,-83.6793 "
         id="polygon225"
         style="fill:#28a48e;fill-opacity:0.67843137;stroke:none" />
    </g>
    <g
       transform="matrix(0.69349068,0,0,0.69349068,150.901,-230.95458)"
       id="g1615"
       style="display:inline;fill:#ffffff;fill-opacity:1">
      <text
         transform="translate(4,1449)"
         style="font-style:normal;font-variant:normal;font-weight:normal;font-stretch:normal;font-size:14px;font-family:Rubik;-inkscape-font-specification:Rubik;text-anchor:middle;fill:#ffffff;fill-opacity:1"
         id="text227"
         font-size="14.00"
         y="-66.877899"
         x="813.7196">Make play space</text>
      <text
         transform="translate(4,1449)"
         style="font-style:normal;font-variant:normal;font-weight:normal;font-stretch:normal;font-size:14px;font-family:Rubik;-inkscape-font-specification:Rubik;text-anchor:middle;fill:#ffffff;fill-opacity:1"
         id="text229"
         font-size="14.00"
         y="-50.0779"
         x="813.7196">an interactive exhibition</text>
      <text
         transform="translate(4,1449)"
         style="font-style:normal;font-variant:normal;font-weight:normal;font-stretch:normal;font-size:14px;font-family:Rubik;-inkscape-font-specification:Rubik;text-anchor:middle;fill:#ffffff;fill-opacity:1"
         id="text231"
         font-size="14.00"
         y="-33.277901"
         x="813.7196">space for children and adults</text>
    </g>
  </g>
  <g
     id="g14400"
     transform="translate(-32.229725,-2.4021602)">
    <g
       style="display:inline;fill:#031e42;fill-opacity:0.99215686;stroke:none"
       transform="matrix(0.69349068,0,0,0.69349068,148.87157,764.8404)"
       id="node4"
       class="node">
      <title
         id="title195">node0</title>
      <polygon
         points="653.9474,-161.3642 586.3457,-161.3642 586.3457,-125.3642 653.9474,-125.3642 "
         id="polygon197"
         style="fill:#031e42;fill-opacity:0.99215686;stroke:none" />
    </g>
    <text
       x="578.93738"
       y="668.33136"
       font-size="14.00"
       id="text199"
       style="font-style:normal;font-variant:normal;font-weight:normal;font-stretch:normal;font-size:9.70886993px;font-family:Rubik;-inkscape-font-specification:Rubik;text-anchor:middle;display:inline;fill:#ffffff;stroke-width:0.69349068">Research</text>
  </g>
  <g
     id="g14433"
     transform="translate(27.209379,-2.7209383)">
    <g
       style="display:inline;fill:#76a9dc;fill-opacity:0.99215686;stroke:none"
       transform="matrix(0.69349068,0,0,0.69349068,146.20303,768.04259)"
       id="node8"
       class="node">
      <title
         id="title259">node4</title>
      <polygon
         points="600.3674,-101.3052 600.3674,-65.3052 712.425,-65.3052 712.425,-101.3052 "
         id="polygon261"
         style="fill:#76a9dc;fill-opacity:0.99215686;stroke:none" />
    </g>
    <text
       x="601.40765"
       y="713.18384"
       font-size="14.00"
       id="text263"
       style="font-style:normal;font-variant:normal;font-weight:normal;font-stretch:normal;font-size:9.70886993px;font-family:Rubik;-inkscape-font-specification:Rubik;text-anchor:middle;display:inline;fill:#ffffff;fill-opacity:0.99215686;stroke:none;stroke-width:0.69349068">Cruinniú na nÓg</text>
  </g>
  <g
     id="g14457">
    <path
       style="display:inline;fill:none;stroke:#000000;stroke-width:0.69075001;stroke-miterlimit:4;stroke-dasharray:none"
       inkscape:connector-curvature="0"
       id="path254"
       d="m 637.67925,574.46939 c 9.27826,15.48128 18.75596,31.29409 28.37649,47.34564" />
    <g
       style="stroke-width:0.69075001;stroke-miterlimit:4;stroke-dasharray:none"
       id="g14444">
      <path
         d="m 592.67912,574.14526 c -24.78604,8.61481 -57.91279,20.12858 -86.56191,30.08613"
         id="path122-9"
         inkscape:connector-curvature="0"
         style="fill:none;stroke:#000000;stroke-width:0.69075001;stroke-miterlimit:4;stroke-dasharray:none" />
      <path
         d="M 833.38102,609.67632 C 782.64249,598.07606 714.83013,582.5722 656.18372,569.16391"
         id="path122-9-8"
         inkscape:connector-curvature="0"
         style="fill:none;stroke:#000000;stroke-width:0.69075001;stroke-miterlimit:4;stroke-dasharray:none" />
      <path
         d="M 618.46254,576.1412 C 608.10387,608.84782 580.27207,696.72424 567.8511,735.94225"
         id="path218"
         inkscape:connector-curvature="0"
         style="display:inline;fill:none;stroke:#000000;stroke-width:0.69075001;stroke-miterlimit:4;stroke-dasharray:none" />
      <path
         d="m 648.40139,575.42388 c 43.31293,20.21473 146.25629,68.25982 204.75963,95.56412"
         id="path236-2"
         inkscape:connector-curvature="0"
         style="display:inline;fill:none;stroke:#000000;stroke-width:0.69075001;stroke-miterlimit:4;stroke-dasharray:none" />
      <path
         d="m 630.85107,576.04033 c 16.12688,35.38039 54.45618,119.47013 76.23896,167.25887"
         id="path236"
         inkscape:connector-curvature="0"
         style="display:inline;fill:none;stroke:#000000;stroke-width:0.69075001;stroke-miterlimit:4;stroke-dasharray:none" />
      <path
         d="m 627.46254,576.1412 c -3.98182,25.50721 -13.07383,83.74954 -17.85413,114.372"
         id="path268"
         inkscape:connector-curvature="0"
         style="display:inline;fill:none;stroke:#000000;stroke-width:0.69075001;stroke-miterlimit:4;stroke-dasharray:none" />
      <path
         d="m 607.24952,570.0176 c -22.44253,17.14788 -63.45924,48.48795 -94.23781,72.00521"
         id="path190"
         inkscape:connector-curvature="0"
         style="display:inline;fill:none;stroke:#000000;stroke-width:0.69075001;stroke-miterlimit:4;stroke-dasharray:none" />
      <path
         d="m 610.74758,574.97713 c -14.29315,17.48098 -40.76149,49.85257 -57.44885,70.26181"
         id="path204"
         inkscape:connector-curvature="0"
         style="display:inline;fill:none;stroke:#000000;stroke-width:0.69075001;stroke-miterlimit:4;stroke-dasharray:none" />
      <path
         d="m 639.60957,573.45782 c 47.32955,38.66603 140.38828,114.6902 196.36678,160.42197"
         id="path284"
         inkscape:connector-curvature="0"
         style="display:inline;fill:none;stroke:#000000;stroke-width:0.69075001;stroke-miterlimit:4;stroke-dasharray:none" />
    </g>
  </g>
  <g
     id="g14427"
     transform="translate(-48.976883,-38.093131)">
    <g
       style="display:inline;fill:#e4e1df;fill-opacity:0.99215686;stroke:none"
       transform="matrix(0.77325889,0,0,0.77325889,106.42617,779.28033)"
       id="node9"
       class="node">
      <title
         id="title273">node6</title>
      <polygon
         points="780.1664,-106.8965 926.3627,-106.8965 926.3627,-148.1003 780.1664,-148.1003 "
         id="polygon275"
         style="fill:#e4e1df;fill-opacity:0.99215686;stroke:none" />
    </g>
    <g
       transform="matrix(0.69349068,0,0,0.69349068,171.71563,-235.75795)"
       id="g1599"
       style="display:inline">
      <text
         transform="translate(4,1449)"
         style="font-style:normal;font-variant:normal;font-weight:normal;font-stretch:normal;font-size:14px;font-family:Rubik;-inkscape-font-specification:Rubik;text-anchor:middle;fill:#000000"
         id="text277"
         font-size="14.00"
         y="-131.69839"
         x="853.26459">Teacher's Resources in</text>
      <text
         transform="translate(4,1449)"
         style="font-style:normal;font-variant:normal;font-weight:normal;font-stretch:normal;font-size:14px;font-family:Rubik;-inkscape-font-specification:Rubik;text-anchor:middle;fill:#000000"
         id="text279"
         font-size="14.00"
         y="-114.8984"
         x="853.26459">the gallery and online</text>
    </g>
  </g>
  <g
     id="g14411"
     transform="translate(282.3489,66.745589)">
    <polygon
       transform="matrix(0.80021264,0,0,0.80021264,69.822291,798.50702)"
       style="display:inline;fill:#76a9dc;fill-opacity:0.99215686;stroke:none;stroke-width:1.00031114;stroke-miterlimit:4;stroke-dasharray:none"
       id="polygon243"
       points="636.1836,-206.0444 825.2188,-206.0444 825.2188,-264.8472 636.1836,-264.8472 " />
    <g
       style="display:inline;fill:#ffffff"
       transform="matrix(0.69349068,0,0,0.69349068,145.03019,-231.48828)"
       id="g1564">
      <text
         transform="translate(4,1449)"
         style="font-style:normal;font-variant:normal;font-weight:normal;font-stretch:normal;font-size:14px;font-family:Rubik;-inkscape-font-specification:Rubik;text-anchor:middle;fill:#ffffff"
         id="text245"
         font-size="14.00"
         y="-248.04581"
         x="730.70117">Partnership with Carlow</text>
      <text
         transform="translate(4,1449)"
         style="font-style:normal;font-variant:normal;font-weight:normal;font-stretch:normal;font-size:14px;font-family:Rubik;-inkscape-font-specification:Rubik;text-anchor:middle;fill:#ffffff"
         id="text247"
         font-size="14.00"
         y="-231.2458"
         x="730.70117">Museum tours for schools from</text>
      <text
         transform="translate(4,1449)"
         style="font-style:normal;font-variant:normal;font-weight:normal;font-stretch:normal;font-size:14px;font-family:Rubik;-inkscape-font-specification:Rubik;text-anchor:middle;fill:#ffffff"
         id="text249"
         font-size="14.00"
         y="-214.4458"
         x="730.70117">outside the town center</text>
    </g>
  </g>
  <polygon
     points="734.5879,-276.5676 755.2085,-312.5676 644.1631,-312.5676 623.5425,-276.5676 "
     id="polygon23"
     style="display:inline;fill:#ffffff;fill-opacity:0.99607843;stroke:#000000;stroke-width:0.70591205;stroke-miterlimit:4;stroke-dasharray:none"
     transform="matrix(0.69199433,0,0,1.3939921,149.83838,948.01313)" />
  <text
     style="font-style:normal;font-variant:normal;font-weight:normal;font-stretch:normal;font-size:9.70886993px;font-family:Rubik;-inkscape-font-specification:Rubik;text-anchor:middle;display:inline;fill:#000000;stroke-width:0.69349068"
     id="text25"
     font-size="14.00"
     y="540.78723"
     x="626.8515">
    <tspan
       style="font-style:normal;font-variant:normal;font-weight:bold;font-stretch:normal;font-family:Rubik;-inkscape-font-specification:'Rubik Bold';stroke-width:0.69349068"
       id="tspan2631">VISUAL</tspan>
  </text>
  <g
     id="g14419"
     transform="translate(21.129948,-6.552906)">
    <g
       style="display:inline;fill:#76a9da;fill-opacity:0.99215686;stroke:none"
       transform="matrix(0.76999891,0,0,0.76999891,-264.60123,712.29292)"
       id="node9-0"
       class="node">
      <title
         id="title273-8">node6</title>
      <polygon
         points="780.1664,-148.1003 780.1664,-106.8965 926.3627,-106.8965 926.3627,-148.1003 "
         id="polygon275-9"
         style="fill:#76a9da;fill-opacity:0.99215686;stroke:none" />
    </g>
    <g
       style="display:inline;fill:#ffffff"
       transform="matrix(0.69056699,0,0,0.69056699,-199.58703,-298.46613)"
       id="g1599-3">
      <text
         transform="translate(4,1449)"
         style="font-style:normal;font-variant:normal;font-weight:normal;font-stretch:normal;font-size:14px;font-family:Rubik;-inkscape-font-specification:Rubik;text-anchor:middle;fill:#ffffff"
         id="text277-1"
         font-size="14.00"
         y="-131.69839"
         x="853.26459">Parent &amp; toddler</text>
      <text
         transform="translate(4,1449)"
         style="font-style:normal;font-variant:normal;font-weight:normal;font-stretch:normal;font-size:14px;font-family:Rubik;-inkscape-font-specification:Rubik;text-anchor:middle;fill:#ffffff"
         id="text279-4"
         font-size="14.00"
         y="-114.8984"
         x="853.26459">Weekly workshops</text>
    </g>
  </g>
  <g
     id="g14377"
     transform="translate(25.986214,-6.0087184)">
    <polygon
       transform="matrix(0.77850368,0,0,0.77850368,431.0932,628.13195)"
       style="display:inline;fill:#76a9d9;fill-opacity:0.99215686;stroke:none"
       id="polygon211-6"
       points="495.5825,-0.0808 708.0333,-0.0808 708.0333,-36.0808 495.5825,-36.0808 " />
    <text
       x="899.60291"
       y="616.96857"
       font-size="14.00"
       id="text213-7"
       style="font-style:normal;font-variant:normal;font-weight:normal;font-stretch:normal;font-size:9.70886993px;font-family:Rubik;-inkscape-font-specification:Rubik;text-anchor:middle;display:inline;fill:#ffffff;fill-opacity:0.99215686;stroke:none;stroke-width:0.69349068">Workshops with community groups</text>
  </g>
  <g
     id="g4529"
     transform="matrix(0.69349068,0,0,0.69349068,326.67581,-63.593873)">
    <g
       style="fill:#fb511d;fill-opacity:0.99215686;stroke:#fa511e;stroke-opacity:0.99215686"
       transform="matrix(1.1822759,0,0,1.1822759,491.66608,1530.6468)"
       id="node33-7"
       class="node">
      <title
         id="title569-3">node28</title>
      <polygon
         points="351.8142,-277.973 351.8142,-313.973 221.4515,-313.973 221.4515,-277.973 "
         id="polygon571-7"
         style="fill:#fb511d;fill-opacity:0.99215686;stroke:#fa511e;stroke-opacity:0.99215686" />
    </g>
    <text
       x="830.5451"
       y="1184.925"
       font-size="14.00"
       id="text573-1"
       style="font-style:normal;font-variant:normal;font-weight:normal;font-stretch:normal;font-size:13.99999905px;font-family:Rubik;-inkscape-font-specification:Rubik;text-anchor:middle;display:inline;fill:#000000;stroke-width:0.99999994">
      <tspan
         id="tspan3935-2"
         style="fill:#ffffff;fill-opacity:1;stroke-width:0.99999994">Breadfellows' Chats</tspan>
    </text>
  </g>
</svg>
